[
	{
		"ParameterKey": "Environment",
		"ParameterValue": "edh_platform_environment"
	},
	{
		"ParameterKey": "AppTagValues",
		"ParameterValue": "edh_tenant_clinical_tags"
    },
	{
		"ParameterKey": "S3BucketName",
		"ParameterValue": "edh.enterprise.clinical"
    },
	{
		"ParameterKey": "ClinicalRMCWRuleState",
		"ParameterValue": "ENABLED"
    },
	{
		"ParameterKey": "S3KeyETLToOracle",
		"ParameterValue": "deploy/bin/etl_to_oracle.zip"
    },
	{
		"ParameterKey": "DynamoDBConofigTableName",
		"ParameterValue": "edh_clinical_config"
    },
	{
		"ParameterKey": "VPNSecurityGroup",
		"ParameterValue": "edh_platform_security_group"
    },
	{
		"ParameterKey": "VPNSubnets",
		"ParameterValue": "edh_platform_nonec2_subnets"
    }
]